AlteraClock/BuildFiles/tb_ThreePhaseModeSelector.vcd
$date
	Tue Apr 16 15:12:45 2024
$end
$version
	Icarus Verilog
$end
$timescale
	1ns
$end
$scope module tb_ThreePhaseModeSelector $end
$var wire 1 ! tb_mode3 $end
$var wire 1 " tb_mode2 $end
$var wire 1 # tb_mode1 $end
$var wire 1 $ tb_initial_mode $end
$var reg 1 % tb_button_activate $end
$var reg 1 & tb_clk $end
$var reg 1 ' tb_nreset $end
$var reg 1 ( tb_switch $end
$var reg 1 ) tb_toggle_button $end
$scope module test_selector $end
$var wire 1 & clk_i $end
$var wire 1 ' nreset_i $end
$var wire 1 ( switch_i $end
$var wire 1 * toggle_button_i $end
$var wire 1 ! mode3_o $end
$var wire 1 " mode2_o $end
$var wire 1 # mode1_o $end
$var wire 1 $ initial_mode_o $end
$var reg 2 + next_state [1:0] $end
$var reg 2 , state [1:0] $end
$upscope $end
$upscope $end
$enddefinitions $end
$comment Show the parameter values. $end
$dumpall
$end
#0
$dumpvars
b0 ,
b1 +
0*
1)
0(
0'
0&
0%
1$
0#
0"
0!
$end
#10
1&
#20
0)
0&
#30
1&
#32
1'
#40
1)
0&
#50
1&
#60
0)
0&
#70
1&
#80
1)
0&
#82
1(
#90
0$
1#
b1 ,
1&
#100
0)
0&
#110
1&
#120
1)
0&
#130
1&
#140
0)
0&
#150
1&
#160
1)
0&
#170
1&
#180
0)
0&
#182
1%
#190
1&
#200
b10 +
1*
1)
0&
#210
b11 +
0#
1"
b10 ,
1&
#220
b10 +
0*
0)
0&
#230
1&
#240
b11 +
1*
1)
0&
#250
b1 +
0"
1!
b11 ,
1&
#260
b11 +
0*
0)
0&
#270
1&
#280
b1 +
1*
1)
0&
#290
b10 +
1#
0!
b1 ,
1&
#300
b1 +
0*
0)
0&
#310
1&
#320
b10 +
1*
1)
0&
#330
b11 +
0#
1"
b10 ,
1&
#340
b10 +
0*
0)
0&
#350
1&
#360
b11 +
1*
1)
0&
#370
b1 +
0"
1!
b11 ,
1&
#380
b11 +
0*
0)
0&
#390
1&
#400
b1 +
1*
1)
0&
#410
b10 +
1#
0!
b1 ,
1&
#420
b1 +
0*
0)
0&
#430
1&
#440
b10 +
1*
1)
0&
#450
b11 +
0#
1"
b10 ,
1&
#460
b10 +
0*
0)
0&
#470
1&
#480
b11 +
1*
1)
0&
#490
b1 +
0"
1!
b11 ,
1&
#500
b11 +
0*
0)
0&
#510
1&
#520
b1 +
1*
1)
0&
#530
b10 +
1#
0!
b1 ,
1&
#540
b1 +
0*
0)
0&
#550
1&
#560
b10 +
1*
1)
0&
#570
b11 +
0#
1"
b10 ,
1&
#580
b10 +
0*
0)
0&
#590
1&
#600
b11 +
1*
1)
0&
#610
b1 +
0"
1!
b11 ,
1&
#620
b11 +
0*
0)
0&
#630
1&
#640
b1 +
1*
1)
0&
#650
b10 +
1#
0!
b1 ,
1&
#660
b1 +
0*
0)
0&
#670
1&
#680
b10 +
1*
1)
0&
#690
b11 +
0#
1"
b10 ,
1&
#700
b10 +
0*
0)
0&
#710
1&
#720
b11 +
1*
1)
0&
#730
b1 +
0"
1!
b11 ,
1&
#740
b11 +
0*
0)
0&
#750
1&
#760
b1 +
1*
1)
0&
#770
b10 +
1#
0!
b1 ,
1&
#780
b1 +
0*
0)
0&
#790
1&
#800
b10 +
1*
1)
0&
#810
b11 +
0#
1"
b10 ,
1&
#820
b10 +
0*
0)
0&
#830
1&
#840
b11 +
1*
1)
0&
#850
b1 +
0"
1!
b11 ,
1&
#860
b11 +
0*
0)
0&
#870
1&
#880
b1 +
1*
1)
0&
#890
b10 +
1#
0!
b1 ,
1&
#900
b1 +
0*
0)
0&
#910
1&
#920
b10 +
1*
1)
0&
#930
b11 +
0#
1"
b10 ,
1&
#940
b10 +
0*
0)
0&
#950
1&
#960
b11 +
1*
1)
0&
#970
b1 +
0"
1!
b11 ,
1&
#980
b11 +
0*
0)
0&
#990
1&
#1000
b1 +
1*
1)
0&
#1010
b10 +
1#
0!
b1 ,
1&
#1020
b1 +
0*
0)
0&
#1030
1&
#1040
b10 +
1*
1)
0&
#1050
b11 +
0#
1"
b10 ,
1&
#1060
b10 +
0*
0)
0&
#1070
1&
#1080
b11 +
1*
1)
0&
#1090
b1 +
0"
1!
b11 ,
1&
#1100
b11 +
0*
0)
0&
#1110
1&
#1120
b1 +
1*
1)
0&
#1130
b10 +
1#
0!
b1 ,
1&
#1140
b1 +
0*
0)
0&
#1150
1&
#1160
b10 +
1*
1)
0&
#1170
b11 +
0#
1"
b10 ,
1&
#1180
b10 +
0*
0)
0&
#1182
0(
#1190
b1 +
1$
0"
b0 ,
1&
#1200
1*
1)
0&
#1210
1&
#1220
0*
0)
0&
#1230
1&
#1240
1*
1)
0&
#1250
1&
#1260
0*
0)
0&
#1270
1&
#1280
1*
1)
0&
#1290
1&
#1300
0*
0)
0&
#1310
1&
#1320
1*
1)
0&
#1330
1&
#1340
0*
0)
0&
#1350
1&
#1360
1*
1)
0&
#1370
1&
#1380
0*
0)
0&
#1390
1&
#1400
1*
1)
0&
#1410
1&
#1420
0*
0)
0&
#1430
1&
#1440
1*
1)
0&
#1450
1&
#1460
0*
0)
0&
#1470
1&
#1480
1*
1)
0&
#1490
1&
#1500
0*
0)
0&
#1510
1&
#1520
1*
1)
0&
#1530
1&
#1540
0*
0)
0&
#1550
1&
#1560
1*
1)
0&
#1570
1&
#1580
0*
0)
0&
#1590
1&
#1600
1*
1)
0&
#1610
1&
#1620
0*
0)
0&
#1630
1&
#1640
1*
1)
0&
#1650
1&
#1660
0*
0)
0&
#1670
1&
#1680
1*
1)
0&
#1690
1&
#1700
0*
0)
0&
#1710
1&
#1720
1*
1)
0&
#1730
1&
#1740
0*
0)
0&
#1750
1&
#1760
1*
1)
0&
#1770
1&
#1780
0*
0)
0&
#1790
1&
#1800
1*
1)
0&
#1810
1&
#1820
0*
0)
0&
#1830
1&
#1840
1*
1)
0&
#1850
1&
#1860
0*
0)
0&
#1870
1&
#1880
1*
1)
0&
#1890
1&
#1900
0*
0)
0&
#1910
1&
#1920
1*
1)
0&
#1930
1&
#1940
0*
0)
0&
#1950
1&
#1960
1*
1)
0&
#1970
1&
#1980
0*
0)
0&
#1990
1&
#2000
1*
1)
0&
#2010
1&
#2020
0*
0)
0&
#2030
1&
#2040
1*
1)
0&
#2050
1&
#2060
0*
0)
0&
#2070
1&
#2080
1*
1)
0&
#2090
1&
#2100
0*
0)
0&
#2110
1&
#2120
1*
1)
0&
#2130
1&
#2140
0*
0)
0&
#2150
1&
#2160
1*
1)
0&
#2170
1&
#2180
0*
0)
0&
